Turbo Assembler	 Version 3.1	    12/07/17 19:12:20	    Page 1
automate.ASM



      1	    0000			 model tiny
      2					 .486
      3	    0000			 .code
      4					 org 100h
      5					 include print.asm
1     6					 echo macro number
1     7						 mov ax, offset	number
1     8						 mov bx, 10
1     9						 xor cx, cx
1    10					 divide:
1    11						 xor dx, dx
1    12						 div bx
1    13						 push dx
1    14						 inc cx
1    15						 test ax, ax
1    16						 jne divide
1    17					 check_offset:
1    18						 pop dx
1    19						 cmp dl, 9
1    20						 jbe out_
1    21						 add dl, 7
1    22					 out_:
1    23						 add dl, 30h
1    24						 mov ah, 2
1    25						 push cx
1    26						 int 21h
1    27						 pop cx
1    28						 loop check_offset
1    29					 endm
1    30
     31	    0100			 start:
     32						 ; инициализируем	таблицу переходов
     33	    0100  BB 01C6r			 mov bx, offset	transtable
     34	    0103  8B F3				 mov si, bx
     35	    0105  83 C6	42			 add si, 66
     36	    0108  26: C6 04 02			 mov byte ptr es:[si], 2h
     37	    010C  8B F3				 mov si, bx
     38	    010E  83 C6	43			 add si, 67
     39	    0111  26: C6 04 02			 mov byte ptr es:[si], 2h
     40	    0115  8B F3				 mov si, bx
     41	    0117  83 C6	44			 add si, 68
     42	    011A  26: C6 04 02			 mov byte ptr es:[si], 2h
     43	    011E  8B F3				 mov si, bx
     44	    0120  83 C6	45			 add si, 69
     45	    0123  26: C6 04 02			 mov byte ptr es:[si], 2h
     46	    0127  8B F3				 mov si, bx
     47	    0129  83 C6	46			 add si, 70
     48	    012C  26: C6 04 02			 mov byte ptr es:[si], 2h
     49	    0130  8B F3				 mov si, bx
     50	    0132  83 C6	47			 add si, 71
     51	    0135  26: C6 04 02			 mov byte ptr es:[si], 2h
     52	    0139  8B F3				 mov si, bx
     53	    013B  83 C6	19			 add si, 25
     54	    013E  26: C6 04 03			 mov byte ptr es:[si], 3h
     55	    0142  8B F3				 mov si, bx
     56	    0144  83 C6	4A			 add si, 74
     57	    0147  26: C6 04 04			 mov byte ptr es:[si], 4h
Turbo Assembler	 Version 3.1	    12/07/17 19:12:20	    Page 2
automate.ASM



     58	    014B  8B F3				 mov si, bx
     59	    014D  83 C6	57			 add si, 87
     60	    0150  26: C6 04 05			 mov byte ptr es:[si], 5h
     61	    0154  8B F3				 mov si, bx
     62	    0156  83 C6	52			 add si, 82
     63	    0159  26: C6 04 06			 mov byte ptr es:[si], 6h
     64
     65	    015D  33 FF				 xor di, di
     66	    015F  33 F6				 xor si, si
     67	    0161  BB 0001			 mov bx, 1  ; инициализируем начальное состояние
     68	    0164  26: 8A 0E 0080		 mov cl, es:[80h]  ; считываем	в cl количество		    +
     69					 аргументов
     70	    0169  BE 0082			 mov si, 82h  ;	устанавливаем указатель ax на начало  +
     71					 аргументов
     72
     73	    016C			 read_args:
     74	    016C  E8 002C			 call transition
     75	    016F  49				 dec cx
     76	    0170  46				 inc si
     77	    0171  83 F9	01			 cmp cx, 1h
     78	    0174  75 F6				 jnz read_args
     79						 echo di
1    80	    0176  8B C7				 mov ax, offset	di
1    81	    0178  BB 000A			 mov bx, 10
1    82	    017B  33 C9				 xor cx, cx
1    83	    017D			 divide:
1    84	    017D  33 D2				 xor dx, dx
1    85	    017F  F7 F3				 div bx
1    86	    0181  52				 push dx
1    87	    0182  41				 inc cx
1    88	    0183  85 C0				 test ax, ax
1    89	    0185  75 F6				 jne divide
1    90	    0187			 check_offset:
1    91	    0187  5A				 pop dx
1    92	    0188  80 FA	09			 cmp dl, 9
1    93	    018B  76 03				 jbe out_
1    94	    018D  80 C2	07			 add dl, 7
1    95	    0190			 out_:
1    96	    0190  80 C2	30			 add dl, 30h
1    97	    0193  B4 02				 mov ah, 2
1    98	    0195  51				 push cx
1    99	    0196  CD 21				 int 21h
1   100	    0198  59				 pop cx
1   101	    0199  E2 EC				 loop check_offset
    102
    103	    019B			 proc transition
    104	    019B  33 D2				 xor dx, dx
    105	    019D  33 C0				 xor ax, ax
    106	    019F  26: 8A 14			 mov dl, es:[si]  ; считываем аргумент
    107	    01A2  80 EA	61			 sub dl, 61h  ;	преобразовываем его в его	номер в	    +
    108					 таблице	переходов
    109	    01A5  8A C2				 mov al, dl  ; помещаем	в ax символ
    110	    01A7  BA 0006			 mov dx, 6
    111	    01AA  53				 push bx
    112	    01AB  F7 E2				 mul dx
    113	    01AD  5B				 pop bx
    114	    01AE  8B D0				 mov dx, ax
Turbo Assembler	 Version 3.1	    12/07/17 19:12:20	    Page 3
automate.ASM



    115	    01B0  4A				 dec dx
    116	    01B1  02 D3				 add dl, bl
    117	    01B3  8B C2				 mov ax, dx
    118	    01B5  BB 01C6r			 mov bx, offset	transtable
    119	    01B8  D7				 xlat
    120	    01B9  8B D8				 mov bx, ax
    121	    01BB  80 FB	06			 cmp bl, 6
    122	    01BE  75 04				 jne next
    123	    01C0  47				 inc di
    124	    01C1  BB 0001			 mov bx, 1
    125	    01C4			 next:
    126	    01C4  C3				 ret
    127	    01C5			 endp
    128	    01C5  C3				 ret
    129	    01C6  D0*(01)		 transtable db 208 dup (1)
    130					 end start
Turbo Assembler	 Version 3.1	    12/07/17 19:12:20	    Page 4
Symbol Table




Symbol Name			  Type	 Value

??DATE				  Text	 "12/07/17"
??FILENAME			  Text	 "automate"
??TIME				  Text	 "19:12:19"
??VERSION			  Number 030A
@32BIT				  Text	 0
@CODE				  Text	 DGROUP
@CODESIZE			  Text	 0
@CPU				  Text	 1F1FH
@CURSEG				  Text	 _TEXT
@DATA				  Text	 DGROUP
@DATASIZE			  Text	 0
@FILENAME			  Text	 AUTOMATE
@INTERFACE			  Text	 00H
@MODEL				  Text	 1
@STACK				  Text	 DGROUP
@WORDSIZE			  Text	 2
CHECK_OFFSET			  Near	 DGROUP:0187
DIVIDE				  Near	 DGROUP:017D
NEXT				  Near	 DGROUP:01C4
OUT_				  Near	 DGROUP:0190
READ_ARGS			  Near	 DGROUP:016C
START				  Near	 DGROUP:0100
TRANSITION			  Near	 DGROUP:019B
TRANSTABLE			  Byte	 DGROUP:01C6

Macro Name

ECHO

Groups & Segments		  Bit Size Align  Combine Class

DGROUP				  Group
  _DATA				  16  0000 Word	  Public  DATA
  _TEXT				  16  0296 Word	  Public  CODE
